# Blender v2.64 (sub 0) OBJ File: ''
# www.blender.org
o Cube
v -1.319568 0.104960 2.067883
v 0.680365 0.089666 2.073847
v 0.674684 0.126706 4.073496
v -1.325249 0.141999 4.067532
v -1.304166 2.104558 2.030887
v 0.695766 2.089265 2.036853
v 0.690085 2.126305 4.036502
v -1.309847 2.141598 4.030537
vt 0.750000 0.500000
vt 0.500000 0.500000
vt 0.500000 0.250000
vt 0.750000 0.250001
vt 0.000000 0.500000
vt 0.000000 0.250000
vt 0.250000 0.250000
vt 0.250000 0.500000
vt 0.500000 0.750000
vt 0.250001 0.750000
vt 0.250000 0.000000
vt 0.500000 0.000000
vt 1.000000 0.500001
vt 1.000000 0.250001
vn -0.007700 -0.999799 0.018498
vn 0.007700 0.999799 -0.018498
vn 0.002841 -0.018520 -0.999825
vn 0.999966 -0.007647 0.002983
vn -0.002840 0.018520 0.999825
vn -0.999966 0.007647 -0.002983
s off
f 1/1/1 2/2/1 3/3/1
f 1/1/1 3/3/1 4/4/1
f 5/5/2 8/6/2 7/7/2
f 5/5/2 7/7/2 6/8/2
f 1/9/3 5/10/3 6/8/3
f 1/9/3 6/8/3 2/2/3
f 2/2/4 6/8/4 7/7/4
f 2/2/4 7/7/4 3/3/4
f 3/3/5 7/7/5 8/11/5
f 3/3/5 8/11/5 4/12/5
f 5/13/6 1/1/6 4/4/6
f 5/13/6 4/4/6 8/14/6
