# Blender v2.65 (sub 0) OBJ File: ''
# www.blender.org
v -0.072293 0.127438 0.276235
v -0.072293 0.467738 0.276235
v -1.097906 0.346824 0.122677
v -1.097906 0.127439 0.200349
v -2.071096 0.019555 0.068598
v -2.071096 0.019556 -0.000000
v -1.097906 0.127439 -0.000000
v 0.118823 0.683696 0.104590
v 0.953320 0.467738 0.200349
v 0.953320 0.467738 0.162256
v 0.953320 0.467738 -0.000000
v 0.118823 0.683696 0.000000
v 0.953320 0.016954 0.200349
v -2.123519 0.094630 0.052430
v 2.069654 0.029162 0.200349
v 2.040199 0.084847 0.331021
v 1.155490 0.079949 0.462921
v 1.913290 0.183225 -0.000000
v 1.918618 0.173153 0.305869
v 1.956714 0.101133 0.305869
v 1.981763 0.053777 -0.000000
v 1.981763 0.053777 0.194742
v 1.977010 0.204306 0.200349
v 1.155490 0.355691 0.462921
v 1.983529 0.191981 0.331021
v 0.934456 0.108235 0.391942
v 0.934456 0.108235 0.761056
v -0.158643 0.209055 0.761056
v -0.158643 0.209055 0.481982
v 0.831481 0.389739 0.391942
v 0.831481 0.389739 0.761056
v -0.810116 0.174888 0.481982
v -0.810117 0.174888 0.627519
v -0.708739 0.355249 0.627519
v -0.708739 0.355249 0.481982
v -0.158643 0.434690 0.761056
v -0.158643 0.434690 0.481982
v 0.831481 0.364603 0.916054
v 0.934456 0.165291 0.916054
v 0.017450 0.396430 0.916054
v 0.017450 0.236674 0.916054
v -0.079564 0.457592 0.227736
v -1.050456 0.352418 0.078302
v 0.068520 0.627362 0.095488
v 0.068520 0.627362 0.000000
v -0.266647 0.616117 0.074044
v -0.266647 0.616117 0.000000
v 1.977010 0.204306 -0.000000
v 1.932567 0.288057 -0.000000
v 1.932567 0.288057 0.095419
v 1.171709 0.608100 0.095419
v 1.145552 0.590397 0.064081
v 1.171709 0.608100 0.000000
v 1.145552 0.590397 0.000000
v 1.234210 0.553577 0.046961
v 1.041978 0.443125 0.145136
v 1.234210 0.553577 0.000000
v 2.032520 0.099364 0.305869
v 1.994424 0.171384 0.305869
v 2.057569 0.052008 0.194742
v 2.069654 0.029162 -0.000000
v 2.057569 0.052008 -0.000000
v -0.339539 0.292065 2.167941
v -0.383089 0.281306 2.070597
v -0.095931 0.281306 2.070597
v -0.139481 0.292065 2.167941
v -0.339539 0.341489 2.167941
v -0.139481 0.341489 2.167941
v -0.095931 0.352248 2.070597
v -0.383089 0.352248 2.070597
v -0.047327 0.293048 2.015455
v -0.078435 0.336247 2.015455
v -0.363844 0.334205 2.012290
v -0.436392 0.301275 2.013163
v 0.023598 0.333017 0.885567
v -0.102940 0.280085 0.774188
v 0.024590 0.300087 0.886440
v 0.834322 0.243557 0.888732
v 0.803215 0.303766 0.888732
v 0.710262 0.188252 0.434095
v 0.195627 0.261318 0.458090
v 0.012921 0.270067 0.238086
v 0.536528 0.184862 0.196257
v 0.316477 0.336629 0.460532
v 0.133771 0.345378 0.240528
v 0.674291 0.321451 0.430221
v 0.500556 0.318062 0.192383
v -0.154727 0.305927 2.079371
v -0.324293 0.305927 2.079371
v -0.324293 0.305927 2.001993
v -0.154727 0.305927 2.001993
v -0.324293 0.327627 2.079371
v -0.324293 0.327627 2.001993
v -0.154727 0.327627 2.079371
v -0.154727 0.327627 2.001993
v 0.770545 0.373397 0.699829
v 0.770545 0.373397 0.505883
v 0.780565 0.454083 0.548119
v 0.780565 0.454083 0.669708
v -0.097416 0.412173 0.586662
v 0.079741 0.671974 0.598761
v -0.097416 0.412173 0.699829
v 0.079741 0.671974 0.669708
v 1.215946 0.143362 0.415600
v 1.918477 0.118574 0.303067
v 1.929155 0.131744 0.444080
v 1.425996 0.151100 0.679709
v 1.918477 0.172863 0.303067
v 1.929155 0.174137 0.444080
v 1.215946 0.279925 0.415600
v 1.425996 0.257742 0.679709
v 1.899391 0.289317 -0.000000
v 1.917401 0.360543 -0.000000
v 1.917401 0.360543 0.037426
v 1.899391 0.289317 0.081361
v 1.398196 0.500814 0.081361
v 1.560674 0.579963 0.037426
v -1.537872 0.311895 2.088275
v -1.521780 0.313605 2.111352
v -1.521780 0.319949 2.111352
v -1.537872 0.321660 2.088275
v -0.358271 0.297051 2.088009
v -0.330300 0.303961 2.150529
v -0.330300 0.329594 2.150529
v -0.358271 0.336504 2.088009
v 2.123519 0.144860 1.096280
v 2.123519 0.156895 1.096280
v 1.995075 0.174039 1.144867
v 1.965960 0.163363 1.157074
v 0.856044 0.938183 0.640319
v 0.856044 0.938183 0.622388
v 0.717913 0.999485 0.624589
v 0.733578 0.994244 0.641527
v 0.694211 0.464741 0.640319
v 0.694211 0.464741 0.579613
v 0.221157 0.613918 0.612107
v 0.327995 0.587073 0.648230
v 1.468935 0.163363 0.635478
v 1.862418 0.144860 0.451680
v 1.862418 0.163164 0.451680
v 1.556342 0.214081 0.613173
v 2.039206 0.771331 0.010220
v 2.118824 0.732383 0.010220
v 2.118824 0.732383 0.000000
v 2.025508 0.779618 0.000000
v 1.874462 0.362467 -0.000000
v 1.874462 0.362467 0.021164
v 1.642673 0.505768 0.021164
v -0.072293 0.127439 -0.000000
v -2.123519 0.094630 -0.000000
v 0.953320 0.016954 -0.000000
v -1.097906 0.346824 -0.000000
v -1.050456 0.352418 -0.000000
v 1.041978 0.443125 -0.000000
v 1.989096 0.181456 -0.000000
v 1.398196 0.500814 -0.000000
v 1.560674 0.579963 0.000000
v 1.585754 0.535618 0.000000
v -0.072293 0.127439 -0.276235
v -1.097906 0.127439 -0.200349
v -1.097906 0.346824 -0.122677
v -0.072293 0.467739 -0.276235
v -2.071096 0.019555 -0.068598
v 0.118823 0.683696 -0.104590
v 0.953320 0.467738 -0.162256
v 0.953320 0.467738 -0.200349
v 0.953320 0.016954 -0.200349
v -2.123519 0.094630 -0.052430
v 1.155490 0.079949 -0.462921
v 2.040199 0.084847 -0.331021
v 2.069654 0.029162 -0.200349
v 1.956714 0.101133 -0.305869
v 1.918618 0.173153 -0.305869
v 1.981763 0.053777 -0.194742
v 1.977010 0.204306 -0.200349
v 1.983529 0.191981 -0.331021
v 1.155490 0.355691 -0.462921
v 0.934456 0.108235 -0.391942
v -0.158643 0.209055 -0.481982
v -0.158643 0.209055 -0.761056
v 0.934456 0.108235 -0.761056
v 0.831481 0.389739 -0.761056
v 0.831481 0.389739 -0.391942
v -0.810116 0.174889 -0.481982
v -0.708739 0.355250 -0.481982
v -0.708739 0.355250 -0.627519
v -0.810117 0.174889 -0.627519
v -0.158643 0.434690 -0.481982
v -0.158643 0.434690 -0.761056
v 0.934456 0.165291 -0.916054
v 0.831481 0.364604 -0.916054
v 0.017450 0.396430 -0.916054
v 0.017450 0.236674 -0.916054
v -1.050456 0.352418 -0.078302
v -0.079564 0.457592 -0.227736
v 0.068520 0.627362 -0.095488
v -0.266647 0.616117 -0.074044
v 1.932567 0.288057 -0.095419
v 1.171709 0.608100 -0.095419
v 1.145552 0.590397 -0.064081
v 1.041978 0.443125 -0.145136
v 1.234210 0.553577 -0.046961
v 1.994424 0.171385 -0.305869
v 2.032520 0.099364 -0.305869
v 2.057569 0.052008 -0.194742
v -0.339539 0.292066 -2.167941
v -0.139481 0.292066 -2.167941
v -0.095931 0.281307 -2.070597
v -0.383089 0.281307 -2.070597
v -0.339539 0.341490 -2.167941
v -0.383089 0.352249 -2.070597
v -0.095931 0.352249 -2.070597
v -0.139481 0.341490 -2.167941
v -0.047327 0.293048 -2.015455
v -0.436392 0.301276 -2.013163
v -0.363844 0.334206 -2.012290
v -0.078435 0.336247 -2.015455
v 0.023598 0.333017 -0.885567
v -0.102940 0.280085 -0.774188
v 0.024590 0.300087 -0.886441
v 0.834322 0.243557 -0.888732
v 0.803215 0.303766 -0.888732
v 0.710262 0.188252 -0.434095
v 0.536528 0.184862 -0.196258
v 0.012921 0.270067 -0.238086
v 0.195627 0.261318 -0.458090
v 0.133771 0.345378 -0.240528
v 0.316477 0.336630 -0.460532
v 0.500556 0.318062 -0.192384
v 0.674291 0.321451 -0.430221
v -0.154727 0.305928 -2.079371
v -0.154727 0.305928 -2.001993
v -0.324293 0.305928 -2.001993
v -0.324293 0.305928 -2.079371
v -0.324293 0.327628 -2.001993
v -0.324293 0.327628 -2.079371
v -0.154727 0.327628 -2.001993
v -0.154727 0.327628 -2.079371
v 0.770545 0.373397 -0.699829
v 0.780565 0.454083 -0.669708
v 0.780565 0.454083 -0.548119
v 0.770545 0.373397 -0.505883
v 0.079741 0.671974 -0.598761
v -0.097416 0.412173 -0.586662
v 0.079741 0.671974 -0.669708
v -0.097416 0.412173 -0.699829
v 1.215946 0.143362 -0.415600
v 1.425996 0.151100 -0.679709
v 1.929155 0.131744 -0.444080
v 1.918477 0.118575 -0.303067
v 1.929155 0.174138 -0.444080
v 1.918477 0.172863 -0.303067
v 1.425996 0.257742 -0.679709
v 1.215946 0.279925 -0.415600
v 1.899391 0.289317 -0.081361
v 1.917401 0.360543 -0.037426
v 1.398196 0.500814 -0.081361
v 1.560674 0.579963 -0.037426
v -1.537872 0.311895 -2.088275
v -1.537872 0.321660 -2.088275
v -1.521780 0.319950 -2.111352
v -1.521780 0.313606 -2.111352
v -0.358271 0.297051 -2.088009
v -0.330300 0.303961 -2.150529
v -0.330300 0.329595 -2.150529
v -0.358271 0.336505 -2.088009
v 2.123519 0.144860 -1.096280
v 1.965960 0.163364 -1.157074
v 1.995075 0.174040 -1.144867
v 2.123519 0.156896 -1.096280
v 0.856044 0.938183 -0.640319
v 0.733578 0.994245 -0.641527
v 0.717913 0.999485 -0.624589
v 0.856044 0.938183 -0.622388
v 0.694211 0.464741 -0.640319
v 0.694211 0.464741 -0.579613
v 0.221157 0.613919 -0.612107
v 0.327995 0.587073 -0.648230
v 1.468935 0.163364 -0.635479
v 1.862418 0.144860 -0.451680
v 1.862418 0.163164 -0.451680
v 1.556342 0.214081 -0.613173
v 2.039206 0.771331 -0.010220
v 2.118824 0.732383 -0.010220
v 1.874462 0.362467 -0.021164
v 1.642673 0.505768 -0.021164
vt 0.149520 0.342798
vt 0.228696 0.342799
vt 0.201531 0.586257
vt 0.148015 0.584082
vt 0.265276 0.977451
vt 0.249166 0.977676
vt 0.245954 0.747733
vt 0.293003 0.747076
vt 0.088564 0.278939
vt 0.066073 0.076491
vt 0.075020 0.076491
vt 0.113128 0.076491
vt 0.113127 0.278939
vt 0.123575 0.101261
vt 0.229447 0.101263
vt 0.229444 0.342799
vt 0.142463 0.827510
vt 0.124869 0.814942
vt 0.202543 0.586298
vt 0.750277 0.892627
vt 0.500901 0.973514
vt 0.497057 0.939924
vt 0.685517 0.847185
vt 0.787005 0.544286
vt 0.789681 0.472449
vt 0.808816 0.472449
vt 0.821398 0.544286
vt 0.821399 0.498548
vt 0.476759 0.888924
vt 0.646484 0.707770
vt 0.656642 0.789241
vt 0.497578 0.911502
vt 0.714561 0.730946
vt 0.761810 0.825690
vt 0.685558 0.847184
vt 0.656656 0.789230
vt 0.352797 0.047629
vt 0.439488 0.047628
vt 0.439488 0.305443
vt 0.373944 0.305445
vt 0.562513 0.006294
vt 0.649153 0.009265
vt 0.646917 0.079849
vt 0.560278 0.076872
vt 0.611785 0.491015
vt 0.577624 0.489838
vt 0.579296 0.441274
vt 0.613457 0.442451
vt 0.429048 0.458661
vt 0.395007 0.458970
vt 0.552444 0.309735
vt 0.617950 0.311991
vt 0.489682 0.454554
vt 0.445336 0.474201
vt 0.466304 0.319247
vt 0.519079 0.323587
vt 0.349311 0.443143
vt 0.321752 0.314597
vt 0.523474 0.076149
vt 0.525700 0.023863
vt 0.515748 0.267353
vt 0.478227 0.048849
vt 0.477285 0.264866
vt 0.017532 0.313099
vt 0.063919 0.591375
vt 0.048249 0.346667
vt 0.059587 0.349571
vt 0.075191 0.581072
vt 0.090700 0.296676
vt 0.059641 0.349585
vt 0.111037 0.302943
vt 0.161955 0.774792
vt 0.223146 0.804238
vt 0.222366 0.998464
vt 0.218194 0.725161
vt 0.240620 0.725161
vt 0.240620 0.803924
vt 0.202161 0.728448
vt 0.780432 0.463135
vt 0.780432 0.485403
vt 0.758022 0.485403
vt 0.733378 0.463135
vt 0.703247 0.714305
vt 0.731739 0.467883
vt 0.758022 0.485652
vt 0.758022 0.679264
vt 0.733379 0.740236
vt 0.765384 0.686681
vt 0.742325 0.740236
vt 0.780432 0.679264
vt 0.780434 0.686681
vt 0.840728 0.631485
vt 0.819330 0.685724
vt 0.797152 0.691428
vt 0.820211 0.639359
vt 0.820461 0.700731
vt 0.797979 0.702426
vt 0.794977 0.551342
vt 0.823442 0.551342
vt 0.819585 0.557249
vt 0.800450 0.557249
vt 0.838237 0.582032
vt 0.832167 0.583348
vt 0.838237 0.629086
vt 0.832167 0.629086
vt 0.843727 0.536251
vt 0.853066 0.552953
vt 0.835258 0.552952
vt 0.825918 0.536251
vt 0.859207 0.581268
vt 0.841398 0.581268
vt 0.859206 0.627006
vt 0.841398 0.627006
vt 0.927905 0.801716
vt 0.904904 0.811944
vt 0.904904 0.744502
vt 0.927906 0.754730
vt 0.939513 0.801717
vt 0.939514 0.754730
vt 0.962516 0.744503
vt 0.962515 0.811945
vt 0.925379 0.729684
vt 0.942041 0.729685
vt 0.291811 0.082784
vt 0.888242 0.811944
vt 0.888243 0.744502
vt 0.616320 0.592853
vt 0.608498 0.583098
vt 0.625784 0.518349
vt 0.638153 0.504101
vt 0.346121 0.537073
vt 0.328450 0.499554
vt 0.629830 0.500048
vt 0.482156 0.858591
vt 0.468104 0.820951
vt 0.688895 0.639295
vt 0.300593 0.729989
vt 0.608725 0.595502
vt 0.688883 0.639305
vt 0.299126 0.714163
vt 0.896482 0.861255
vt 0.831900 0.965002
vt 0.764968 0.970873
vt 0.827319 0.862565
vt 0.828681 0.729090
vt 0.845399 0.758061
vt 0.778280 0.754989
vt 0.761555 0.726019
vt 0.890519 0.829392
vt 0.821359 0.830702
vt 0.933316 0.634725
vt 0.933315 0.674549
vt 0.915142 0.674549
vt 0.915143 0.634725
vt 0.933315 0.679646
vt 0.915142 0.679646
vt 0.933316 0.589804
vt 0.933316 0.629629
vt 0.915143 0.629628
vt 0.915143 0.589804
vt 0.685551 0.847169
vt 0.942040 0.826763
vt 0.925378 0.826763
vt 0.682759 0.239767
vt 0.728310 0.239767
vt 0.718390 0.258863
vt 0.689833 0.258863
vt 0.738746 0.255968
vt 0.775239 0.457526
vt 0.706504 0.431115
vt 0.709338 0.505084
vt 0.682759 0.505084
vt 0.689833 0.431231
vt 0.706496 0.431231
vt 0.618996 0.452940
vt 0.670147 0.255439
vt 0.689833 0.258907
vt 0.930103 0.246589
vt 0.881806 0.406661
vt 0.851217 0.394276
vt 0.852479 0.263717
vt 0.853373 0.427534
vt 0.840633 0.427027
vt 0.842247 0.393548
vt 0.813389 0.408623
vt 0.748063 0.252778
vt 0.827067 0.262469
vt 0.825158 0.183263
vt 0.857206 0.184537
vt 0.899036 0.577686
vt 0.899036 0.594941
vt 0.890246 0.594941
vt 0.879928 0.577686
vt 0.853171 0.716182
vt 0.871108 0.589725
vt 0.890246 0.594992
vt 0.890246 0.693302
vt 0.960003 0.393533
vt 0.960405 0.386926
vt 0.961895 0.386926
vt 0.962296 0.393533
vt 0.943643 0.114094
vt 0.958142 0.106941
vt 0.955128 0.390921
vt 0.964163 0.106941
vt 0.978662 0.114094
vt 0.967171 0.390921
vt 0.934391 0.114595
vt 0.952838 0.391044
vt 0.853970 0.170782
vt 0.853605 0.173649
vt 0.821103 0.173454
vt 0.814101 0.169977
vt 0.772808 0.130130
vt 0.768836 0.129476
vt 0.775238 0.094581
vt 0.778557 0.099023
vt 0.651505 0.133759
vt 0.651505 0.119501
vt 0.769014 0.133760
vt 0.659311 0.003028
vt 0.649448 0.251571
vt 0.650870 0.224457
vt 0.772157 0.165242
vt 0.772825 0.170367
vt 0.772170 0.165236
vt 0.752502 0.012371
vt 0.854453 0.007382
vt 0.858752 0.007394
vt 0.856795 0.170729
vt 0.940405 0.016429
vt 0.889292 0.170333
vt 0.964668 0.015711
vt 0.897006 0.170804
vt 0.911637 0.569821
vt 0.932360 0.571797
vt 0.932107 0.574131
vt 0.907644 0.571906
vt 0.934214 0.467714
vt 0.934795 0.571835
vt 0.929243 0.467741
vt 0.865242 0.467755
vt 0.242589 0.506879
vt 0.307459 0.505973
vt 0.261779 0.999007
vt 0.249466 0.999179
vt 0.282591 0.001801
vt 0.286254 0.263975
vt 0.239204 0.264632
vt 0.235541 0.002458
vt 0.060090 0.839947
vt 0.092635 0.593730
vt 0.072362 0.840953
vt 0.075224 0.581043
vt 0.093552 0.582546
vt 0.240617 0.998149
vt 0.786124 0.639359
vt 0.786124 0.691428
vt 0.079041 0.054885
vt 0.113128 0.054885
vt 0.791702 0.582031
vt 0.797774 0.629086
vt 0.791702 0.629086
vt 0.842422 0.464376
vt 0.824614 0.464376
vt 0.899036 0.735749
vt 0.879928 0.735749
vt 0.899036 0.693302
vt 0.907302 0.570111
vt 0.849381 0.467177
vn -0.058229 -0.668599 0.741295
vn -0.251259 0.579699 0.775109
vn -0.176916 0.806513 0.564104
vn -0.051973 -0.554552 0.830500
vn -0.381390 -0.685446 0.620228
vn -0.412671 -0.910855 0.000000
vn 0.055147 -0.998474 0.000000
vn -0.227912 0.912717 0.339091
vn -0.142735 0.728599 0.669881
vn -0.022889 0.991363 -0.128910
vn 0.259011 0.965850 0.000000
vn -0.290078 0.956969 0.000000
vn -0.225806 -0.830256 0.509568
vn -0.818415 0.316324 0.479690
vn 0.823359 -0.536699 0.184393
vn 0.714225 -0.270119 0.645650
vn -0.281961 -0.529099 0.800317
vn 0.845180 -0.534440 0.000000
vn 0.705252 -0.425794 -0.566790
vn 0.469985 0.568499 -0.675192
vn 0.525895 0.850520 0.000000
vn 0.476699 0.868709 -0.134373
vn 0.671194 0.728813 0.135258
vn -0.213965 0.546434 0.809687
vn 0.528092 0.624561 0.575304
vn 0.640217 -0.503983 -0.579699
vn 0.758141 -0.636464 0.141728
vn -0.302255 -0.745964 0.593402
vn -0.047456 -0.700156 -0.712363
vn 0.444044 0.634693 -0.632405
vn 0.576647 0.814295 0.066164
vn -0.707663 -0.439314 -0.553331
vn -0.745811 -0.443281 0.497208
vn -0.512955 0.678274 0.526078
vn -0.443770 0.647145 -0.619861
vn -0.292306 0.776727 0.557878
vn -0.065737 0.735527 -0.674276
vn 0.459181 0.610553 0.645253
vn 0.734428 -0.313700 0.601794
vn -0.248207 0.566057 0.786096
vn -0.293466 -0.522996 0.800195
vn -0.371197 0.890835 0.261879
vn -0.170019 0.984710 0.037446
vn -0.545366 0.828516 0.126804
vn -0.423872 0.905698 0.000000
vn -0.182897 0.889279 0.419172
vn -0.178076 0.984008 0.000000
vn 0.883633 0.468154 0.000000
vn 0.674673 0.738090 0.000000
vn 0.584490 0.776482 0.235450
vn -0.024689 0.901608 0.431776
vn -0.801935 0.380657 -0.460402
vn -0.098239 0.995148 0.000000
vn -0.994934 -0.100497 0.000000
vn -0.916410 -0.072695 -0.393536
vn -0.249916 0.645283 -0.721885
vn -0.997955 -0.063875 0.000000
vn 0.685965 0.655477 -0.315867
vn 0.878842 0.136143 -0.457198
vn 0.581652 0.807886 -0.094485
vn 0.859401 -0.511246 0.000000
vn -0.434156 -0.562670 0.703452
vn -0.686178 -0.585650 -0.431410
vn 0.686178 -0.585650 -0.431410
vn 0.434156 -0.562670 0.703452
vn -0.434156 0.562670 0.703452
vn 0.434156 0.562670 0.703452
vn 0.686178 0.585650 -0.431410
vn -0.686178 0.585650 -0.431410
vn 0.486007 -0.474258 0.734062
vn 0.196570 0.700827 0.685659
vn -0.195105 0.766045 0.612445
vn -0.891293 -0.153203 0.426740
vn -0.141667 0.988830 -0.045839
vn -0.954253 -0.157353 -0.254128
vn 0.024964 -0.999512 0.018372
vn 0.723380 -0.362102 0.587848
vn 0.587115 0.677145 0.443525
vn 0.695547 -0.506058 -0.509995
vn -0.737877 -0.307932 0.600543
vn -0.746513 -0.221686 0.627308
vn 0.488968 -0.800806 -0.345775
vn -0.119663 0.985046 0.123722
vn -0.326487 0.894040 0.306681
vn 0.633961 0.612751 -0.471816
vn 0.437635 0.841151 -0.317637
vn 0.707083 -0.707083 0.000000
vn -0.707083 -0.707083 0.000000
vn -0.707083 0.707083 0.000000
vn 0.707083 0.707083 0.000000
vn 0.610523 0.209296 0.763817
vn 0.594531 0.247230 -0.765099
vn 0.719718 0.545305 -0.429640
vn 0.703238 0.520310 0.484451
vn -0.694388 0.497696 -0.519700
vn -0.288186 0.791864 -0.538347
vn -0.650197 0.520920 0.552995
vn -0.257515 0.787927 0.559282
vn -0.642232 -0.551744 0.532060
vn 0.698813 -0.715140 0.013855
vn 0.688040 -0.583728 0.431074
vn -0.189581 -0.570330 0.799219
vn 0.773003 0.630848 -0.066897
vn 0.737724 0.544145 0.399548
vn -0.596515 0.606708 0.525376
vn -0.142003 0.616596 0.774346
vn 0.969481 -0.245125 0.000000
vn 0.926481 0.376324 0.000000
vn 0.815485 0.411756 0.406720
vn 0.702536 0.236366 0.671194
vn -0.259011 0.837123 0.481765
vn 0.083773 0.859035 0.504959
vn -0.734855 -0.564470 -0.375927
vn -0.377178 -0.586016 0.717124
vn -0.376598 0.586810 0.716788
vn -0.734519 0.564928 -0.375896
vn -0.010010 -0.829279 -0.558702
vn -0.031892 -0.549577 0.834803
vn -0.032228 0.549638 0.834742
vn -0.010559 0.829493 -0.558367
vn 0.726157 -0.599445 0.336619
vn 0.781030 0.533555 0.324442
vn 0.208014 0.747765 0.630482
vn -0.399976 -0.114780 0.909268
vn 0.748985 0.325480 0.577105
vn 0.753960 0.345866 -0.558428
vn -0.267647 0.890774 -0.367229
vn 0.104801 0.739738 0.664632
vn 0.674459 -0.230537 0.701346
vn 0.642323 -0.163335 -0.748802
vn -0.621754 0.753533 -0.213477
vn -0.158574 0.172857 0.972076
vn -0.678793 -0.399579 0.616077
vn 0.652913 -0.709708 -0.264473
vn 0.719443 0.634541 -0.282327
vn -0.179174 0.960631 0.212195
vn 0.176061 0.645131 0.743461
vn 0.796442 0.220435 0.563066
vn 0.964934 0.262398 0.000000
vn -0.227851 0.973662 0.000000
vn 0.834376 -0.551164 0.000000
vn 0.589190 -0.367931 0.719321
vn -0.112552 0.218360 0.969329
vn -0.053621 -0.998535 0.000000
vn -0.935850 0.352306 0.000000
vn -0.048158 -0.998810 0.000000
vn -0.178259 0.983978 0.000000
vn -0.219153 0.975677 0.000000
vn -0.125004 0.992126 0.000000
vn 0.856044 -0.516831 0.000000
vn -0.437910 0.898984 0.000000
vn 0.049043 0.998779 0.000000
vn -0.485153 0.874416 0.000000
vn -0.058229 -0.668599 -0.741295
vn -0.051973 -0.554552 -0.830500
vn -0.176916 0.806513 -0.564104
vn -0.251259 0.579699 -0.775109
vn -0.381390 -0.685446 -0.620228
vn -0.227912 0.912717 -0.339091
vn -0.022889 0.991363 0.128910
vn -0.142735 0.728599 -0.669881
vn -0.225806 -0.830256 -0.509568
vn -0.818415 0.316324 -0.479690
vn -0.281961 -0.529099 -0.800317
vn 0.714225 -0.270119 -0.645650
vn 0.823359 -0.536699 -0.184393
vn 0.469985 0.568499 0.675192
vn 0.705252 -0.425794 0.566790
vn 0.476699 0.868709 0.134373
vn 0.671194 0.728813 -0.135258
vn 0.528092 0.624561 -0.575304
vn -0.213965 0.546434 -0.809687
vn 0.640217 -0.503983 0.579699
vn -0.047456 -0.700156 0.712363
vn -0.302255 -0.745964 -0.593402
vn 0.758141 -0.636464 -0.141728
vn 0.576647 0.814295 -0.066164
vn 0.444044 0.634693 0.632405
vn -0.707663 -0.439314 0.553331
vn -0.443770 0.647145 0.619861
vn -0.512955 0.678274 -0.526078
vn -0.745811 -0.443281 -0.497208
vn -0.065737 0.735527 0.674276
vn -0.292306 0.776727 -0.557878
vn 0.734428 -0.313700 -0.601794
vn 0.459181 0.610553 -0.645253
vn -0.248207 0.566057 -0.786096
vn -0.293466 -0.522996 -0.800195
vn -0.170019 0.984710 -0.037446
vn -0.371197 0.890835 -0.261879
vn -0.545366 0.828516 -0.126804
vn -0.182897 0.889279 -0.419172
vn 0.584490 0.776482 -0.235450
vn -0.024689 0.901608 -0.431776
vn -0.801935 0.380657 0.460402
vn -0.249916 0.645283 0.721885
vn -0.916410 -0.072695 0.393536
vn 0.878842 0.136143 0.457198
vn 0.685965 0.655477 0.315867
vn 0.581652 0.807886 0.094485
vn -0.434156 -0.562670 -0.703452
vn 0.434156 -0.562670 -0.703452
vn 0.686178 -0.585650 0.431410
vn -0.686178 -0.585650 0.431410
vn -0.434156 0.562670 -0.703452
vn -0.686178 0.585650 0.431410
vn 0.686178 0.585650 0.431410
vn 0.434156 0.562670 -0.703452
vn 0.486007 -0.474258 -0.734062
vn -0.891293 -0.153203 -0.426740
vn -0.195105 0.766045 -0.612445
vn 0.196570 0.700827 -0.685659
vn -0.141667 0.988830 0.045839
vn -0.954253 -0.157353 0.254128
vn 0.024964 -0.999512 -0.018372
vn 0.723380 -0.362102 -0.587848
vn 0.587115 0.677145 -0.443525
vn 0.695547 -0.506058 0.509995
vn 0.488968 -0.800806 0.345775
vn -0.746513 -0.221686 -0.627308
vn -0.737877 -0.307932 -0.600543
vn -0.326487 0.894040 -0.306681
vn -0.119663 0.985046 -0.123722
vn 0.437635 0.841151 0.317637
vn 0.633961 0.612751 0.471816
vn 0.610523 0.209296 -0.763817
vn 0.703238 0.520310 -0.484451
vn 0.719718 0.545305 0.429640
vn 0.594531 0.247230 0.765099
vn -0.288186 0.791864 0.538347
vn -0.694388 0.497696 0.519700
vn -0.257515 0.787927 -0.559282
vn -0.650197 0.520920 -0.552995
vn -0.642232 -0.551744 -0.532060
vn -0.189581 -0.570330 -0.799219
vn 0.688040 -0.583728 -0.431074
vn 0.698813 -0.715140 -0.013855
vn 0.737724 0.544145 -0.399548
vn 0.773003 0.630848 0.066897
vn -0.142003 0.616596 -0.774346
vn -0.596515 0.606708 -0.525376
vn 0.702536 0.236366 -0.671194
vn 0.815485 0.411756 -0.406720
vn -0.259011 0.837123 -0.481765
vn 0.083773 0.859035 -0.504959
vn -0.734855 -0.564470 0.375927
vn -0.734519 0.564928 0.375896
vn -0.376598 0.586810 -0.716788
vn -0.377178 -0.586016 -0.717124
vn -0.010010 -0.829279 0.558702
vn -0.031892 -0.549577 -0.834803
vn -0.032228 0.549638 -0.834742
vn -0.010559 0.829493 0.558367
vn 0.726157 -0.599445 -0.336619
vn -0.399976 -0.114780 -0.909268
vn 0.208014 0.747765 -0.630482
vn 0.781030 0.533555 -0.324442
vn 0.748985 0.325480 -0.577105
vn 0.104801 0.739738 -0.664632
vn -0.267647 0.890774 0.367229
vn 0.753960 0.345866 0.558428
vn 0.674459 -0.230537 -0.701346
vn 0.642323 -0.163335 0.748802
vn -0.621754 0.753533 0.213477
vn -0.158574 0.172857 -0.972076
vn -0.678793 -0.399579 -0.616077
vn 0.652913 -0.709708 0.264473
vn 0.719443 0.634541 0.282327
vn -0.179174 0.960631 -0.212195
vn 0.176061 0.645131 -0.743461
vn 0.796442 0.220435 -0.563066
vn 0.589190 -0.367931 -0.719321
vn -0.112552 0.218360 -0.969329
s 1
f 1/1/1 2/2/2 3/3/3
f 4/4/4 1/1/1 3/3/3
f 5/5/5 6/6/6 7/7/7
f 7/7/7 4/8/4 5/5/5
f 8/9/8 9/10/9 10/11/10
f 8/9/8 10/11/10 11/12/11
f 8/9/8 11/12/11 12/13/12
f 13/14/13 9/15/9 2/16/2
f 2/16/2 1/1/1 13/14/13
f 14/17/14 5/18/5 4/4/4
f 4/4/4 3/19/3 14/17/14
f 13/20/13 15/21/15 16/22/16
f 16/22/16 17/23/17 13/20/13
f 18/24/18 19/25/19 20/26/20
f 21/27/21 18/24/18 20/26/20
f 22/28/22 21/27/21 20/26/20
f 23/29/23 9/30/9 24/31/24
f 24/31/24 25/32/25 23/29/23
f 9/33/9 13/34/13 17/35/17
f 17/35/17 24/36/24 9/33/9
f 26/37/26 27/38/27 28/39/28
f 28/39/28 29/40/29 26/37/26
f 27/41/27 26/42/26 30/43/30
f 30/43/30 31/44/31 27/41/27
f 32/45/32 33/46/33 34/47/34
f 34/47/34 35/48/35 32/45/32
f 33/49/33 32/50/32 29/40/29
f 29/40/29 28/39/28 33/49/33
f 35/48/35 34/47/34 36/51/36
f 36/51/36 37/52/37 35/48/35
f 34/53/34 33/54/33 28/55/28
f 28/55/28 36/56/36 34/53/34
f 32/50/32 35/57/35 37/58/37
f 37/58/37 29/40/29 32/50/32
f 27/41/27 31/44/31 38/59/38
f 38/59/38 39/60/39 27/41/27
f 31/44/31 36/51/36 40/61/40
f 40/61/40 38/59/38 31/44/31
f 28/39/28 27/38/27 39/62/39
f 39/62/39 41/63/41 28/39/28
f 2/64/2 9/10/9 8/9/8
f 3/65/3 2/66/2 42/67/42
f 42/67/42 43/68/43 3/65/3
f 2/66/2 8/9/8 44/69/44
f 44/69/44 42/70/42 2/66/2
f 12/13/12 45/71/45 44/69/44
f 44/69/44 8/9/8 12/13/12
f 42/72/42 46/73/46 43/74/43
f 46/73/46 44/75/44 45/76/45
f 45/76/45 47/77/47 46/73/46
f 42/72/42 44/78/44 46/73/46
f 48/79/48 49/80/49 50/81/50
f 50/81/50 23/82/23 48/79/48
f 9/83/9 23/84/23 50/85/50
f 50/85/50 51/86/51 9/83/9
f 9/87/9 51/86/51 52/88/52
f 52/88/52 10/89/10 9/87/9
f 53/90/53 54/91/54 52/88/52
f 52/88/52 51/86/51 53/90/53
f 10/92/10 52/93/52 55/94/55
f 55/94/55 56/95/56 10/92/10
f 54/96/54 57/97/57 55/94/55
f 55/94/55 52/93/52 54/96/54
f 25/98/25 16/99/16 58/100/58
f 58/100/58 59/101/59 25/98/25
f 16/99/16 15/102/15 60/103/60
f 60/103/60 58/100/58 16/99/16
f 61/104/61 62/105/21 60/103/60
f 60/103/60 15/102/15 61/104/61
f 59/106/59 58/107/58 20/108/20
f 20/108/20 19/109/19 59/106/59
f 58/107/58 60/110/60 22/111/22
f 22/111/22 20/108/20 58/107/58
f 62/112/21 21/113/21 22/111/22
f 22/111/22 60/110/60 62/112/21
f 63/114/62 64/115/63 65/116/64
f 65/116/64 66/117/65 63/114/62
f 67/118/66 68/119/67 69/120/68
f 69/120/68 70/121/69 67/118/66
f 63/114/62 66/117/65 68/119/67
f 68/119/67 67/118/66 63/114/62
f 66/117/65 65/122/64 69/123/68
f 69/123/68 68/119/67 66/117/65
f 28/55/28 41/63/41 40/61/40
f 40/61/40 36/56/36 28/55/28
f 41/63/41 39/62/39 38/59/38
f 38/59/38 40/61/40 41/63/41
f 29/40/29 37/58/37 30/124/30
f 30/124/30 26/37/26 29/40/29
f 70/125/69 69/126/68 65/116/64
f 65/116/64 64/115/63 70/125/69
f 71/127/70 72/128/71 73/129/72
f 73/129/72 74/130/73 71/127/70
f 75/131/74 76/132/75 74/133/73
f 74/133/73 73/129/72 75/131/74
f 76/134/75 77/135/76 74/136/73
f 77/135/76 78/137/77 71/138/70
f 71/138/70 74/139/73 77/135/76
f 78/137/77 79/140/78 72/128/71
f 72/128/71 71/138/70 78/137/77
f 79/140/78 75/131/74 73/129/72
f 73/129/72 72/128/71 79/140/78
f 80/141/79 81/142/80 82/143/81
f 82/143/81 83/144/82 80/141/79
f 81/145/80 84/146/83 85/147/84
f 85/147/84 82/148/81 81/145/80
f 84/146/83 86/149/85 87/150/86
f 87/150/86 85/147/84 84/146/83
f 86/149/85 80/141/79 83/144/82
f 83/144/82 87/150/86 86/149/85
f 88/151/87 89/152/88 90/153/88
f 90/153/88 91/154/87 88/151/87
f 89/152/88 92/155/89 93/156/89
f 93/156/89 90/153/88 89/152/88
f 92/157/89 94/158/90 95/159/90
f 95/159/90 93/160/89 92/157/89
f 94/158/90 88/151/87 91/154/87
f 91/154/87 95/159/90 94/158/90
f 37/52/37 36/51/36 31/44/31
f 31/44/31 30/43/30 37/52/37
f 25/32/25 24/36/24 17/161/17
f 17/161/17 16/22/16 25/32/25
f 67/118/66 70/162/69 64/163/63
f 64/163/63 63/114/62 67/118/66
f 96/164/91 97/165/92 98/166/93
f 98/166/93 99/167/94 96/164/91
f 97/168/92 100/169/95 101/170/96
f 101/170/96 98/166/93 97/168/92
f 100/171/95 102/172/97 103/173/98
f 103/173/98 101/174/96 100/171/95
f 102/175/97 96/176/91 99/177/94
f 99/177/94 103/173/98 102/175/97
f 104/178/99 105/179/100 106/180/101
f 106/180/101 107/181/102 104/178/99
f 105/182/100 108/183/103 109/184/104
f 109/184/104 106/180/101 105/182/100
f 108/185/103 110/186/105 111/187/106
f 111/187/106 109/184/104 108/185/103
f 110/188/105 104/189/99 107/181/102
f 107/181/102 111/187/106 110/188/105
f 112/190/107 113/191/108 114/192/109
f 114/192/109 115/193/110 112/190/107
f 116/194/111 115/195/110 114/196/109
f 114/196/109 117/197/112 116/194/111
f 118/198/113 119/199/114 120/200/115
f 120/200/115 121/201/116 118/198/113
f 122/202/117 123/203/118 119/199/114
f 119/199/114 118/204/113 122/202/117
f 123/203/118 124/205/119 120/200/115
f 120/200/115 119/199/114 123/203/118
f 124/205/119 125/206/120 121/207/116
f 121/207/116 120/200/115 124/205/119
f 125/208/120 122/202/117 118/204/113
f 118/204/113 121/209/116 125/208/120
f 101/174/96 103/173/98 99/167/94
f 99/167/94 98/166/93 101/174/96
f 109/184/104 111/187/106 107/181/102
f 107/181/102 106/180/101 109/184/104
f 126/210/121 127/211/122 128/212/123
f 128/212/123 129/213/124 126/210/121
f 130/214/125 131/215/126 132/216/127
f 132/216/127 133/217/128 130/214/125
f 134/218/129 135/219/130 131/215/126
f 131/215/126 130/220/125 134/218/129
f 135/219/130 136/221/131 132/216/127
f 132/216/127 131/215/126 135/219/130
f 136/222/131 137/223/132 133/224/128
f 133/224/128 132/225/127 136/222/131
f 137/223/132 134/218/129 130/220/125
f 130/220/125 133/226/128 137/223/132
f 138/227/133 139/228/134 126/210/121
f 126/210/121 129/213/124 138/227/133
f 139/228/134 140/229/135 127/230/122
f 127/230/122 126/210/121 139/228/134
f 140/229/135 141/231/136 128/232/123
f 128/232/123 127/230/122 140/229/135
f 141/231/136 138/233/133 129/234/124
f 129/234/124 128/232/123 141/231/136
f 142/235/137 143/236/138 144/237/139
f 144/237/139 145/238/140 142/235/137
f 146/239/141 144/240/139 143/236/138
f 143/236/138 147/241/142 146/239/141
f 148/242/143 147/241/142 143/236/138
f 143/236/138 142/235/137 148/242/143
f 149/243/144 1/244/1 4/8/4
f 4/8/4 7/7/7 149/243/144
f 6/6/6 5/5/5 14/245/14
f 14/245/14 150/246/145 6/6/6
f 15/247/15 13/248/13 151/249/146
f 151/249/146 61/250/61 15/247/15
f 13/248/13 1/244/1 149/243/144
f 149/243/144 151/249/146 13/248/13
f 14/251/14 3/65/3 152/252/147
f 152/252/147 150/253/145 14/251/14
f 152/252/147 3/65/3 43/254/43
f 43/254/43 153/255/148 152/252/147
f 43/74/43 46/73/46 47/77/47
f 47/77/47 153/256/148 43/74/43
f 154/257/149 56/95/56 55/94/55
f 55/94/55 57/258/57 154/257/149
f 11/12/11 10/11/10 56/259/56
f 56/259/56 154/260/149 11/12/11
f 23/261/23 25/98/25 59/101/59
f 23/261/23 59/101/59 155/262/150
f 48/263/48 23/261/23 155/262/150
f 155/264/150 59/106/59 19/109/19
f 19/109/19 18/265/18 155/264/150
f 51/86/51 50/81/50 49/80/49
f 49/80/49 53/90/53 51/86/51
f 156/266/151 116/267/111 117/197/112
f 117/197/112 157/268/152 156/266/151
f 117/197/112 114/192/109 113/191/108
f 113/191/108 157/268/152 117/197/112
f 148/242/143 142/235/137 145/269/140
f 145/269/140 158/270/153 148/242/143
f 159/1/154 160/4/155 161/3/156
f 161/3/156 162/2/157 159/1/154
f 163/5/158 160/8/155 7/7/7
f 7/7/7 6/6/6 163/5/158
f 164/9/159 12/13/12 11/12/11
f 164/9/159 11/12/11 165/11/160
f 164/9/159 165/11/160 166/10/161
f 167/14/162 159/1/154 162/16/157
f 162/16/157 166/15/161 167/14/162
f 168/17/163 161/19/156 160/4/155
f 160/4/155 163/18/158 168/17/163
f 167/20/162 169/23/164 170/22/165
f 170/22/165 171/21/166 167/20/162
f 172/26/167 173/25/168 18/24/18
f 172/26/167 18/24/18 21/27/21
f 174/28/169 172/26/167 21/27/21
f 175/29/170 176/32/171 177/31/172
f 177/31/172 166/30/161 175/29/170
f 166/33/161 177/36/172 169/35/164
f 169/35/164 167/34/162 166/33/161
f 178/37/173 179/40/174 180/39/175
f 180/39/175 181/38/176 178/37/173
f 181/41/176 182/44/177 183/43/178
f 183/43/178 178/42/173 181/41/176
f 184/45/179 185/48/180 186/47/181
f 186/47/181 187/46/182 184/45/179
f 187/49/182 180/39/175 179/40/174
f 179/40/174 184/50/179 187/49/182
f 185/48/180 188/52/183 189/51/184
f 189/51/184 186/47/181 185/48/180
f 186/53/181 189/56/184 180/55/175
f 180/55/175 187/54/182 186/53/181
f 184/50/179 179/40/174 188/58/183
f 188/58/183 185/57/180 184/50/179
f 181/41/176 190/60/185 191/59/186
f 191/59/186 182/44/177 181/41/176
f 182/44/177 191/59/186 192/61/187
f 192/61/187 189/51/184 182/44/177
f 180/39/175 193/63/188 190/62/185
f 190/62/185 181/38/176 180/39/175
f 162/64/157 164/9/159 166/10/161
f 161/65/156 194/68/189 195/67/190
f 195/67/190 162/66/157 161/65/156
f 162/66/157 195/70/190 196/69/191
f 196/69/191 164/9/159 162/66/157
f 12/13/12 164/9/159 196/69/191
f 196/69/191 45/71/45 12/13/12
f 195/72/190 194/74/189 197/73/192
f 197/73/192 47/77/47 45/76/45
f 45/76/45 196/75/191 197/73/192
f 195/72/190 197/73/192 196/78/191
f 48/79/48 175/82/170 198/81/193
f 198/81/193 49/80/49 48/79/48
f 166/83/161 199/86/194 198/85/193
f 198/85/193 175/84/170 166/83/161
f 166/87/161 165/89/160 200/88/195
f 200/88/195 199/86/194 166/87/161
f 53/90/53 199/86/194 200/88/195
f 200/88/195 54/91/54 53/90/53
f 165/92/160 201/95/196 202/94/197
f 202/94/197 200/93/195 165/92/160
f 54/96/54 200/93/195 202/94/197
f 202/94/197 57/97/57 54/96/54
f 176/98/171 203/101/198 204/100/199
f 204/100/199 170/99/165 176/98/171
f 170/99/165 204/100/199 205/103/200
f 205/103/200 171/102/166 170/99/165
f 61/104/61 171/102/166 205/103/200
f 205/103/200 62/105/21 61/104/61
f 203/106/198 173/109/168 172/108/167
f 172/108/167 204/107/199 203/106/198
f 204/107/199 172/108/167 174/111/169
f 174/111/169 205/110/200 204/107/199
f 62/112/21 205/110/200 174/111/169
f 174/111/169 21/113/21 62/112/21
f 206/114/201 207/117/202 208/116/203
f 208/116/203 209/115/204 206/114/201
f 210/118/205 211/121/206 212/120/207
f 212/120/207 213/119/208 210/118/205
f 206/114/201 210/118/205 213/119/208
f 213/119/208 207/117/202 206/114/201
f 207/117/202 213/119/208 212/123/207
f 212/123/207 208/122/203 207/117/202
f 180/55/175 189/56/184 192/61/187
f 192/61/187 193/63/188 180/55/175
f 193/63/188 192/61/187 191/59/186
f 191/59/186 190/62/185 193/63/188
f 179/40/174 178/37/173 183/124/178
f 183/124/178 188/58/183 179/40/174
f 211/125/206 209/115/204 208/116/203
f 208/116/203 212/126/207 211/125/206
f 214/127/209 215/130/210 216/129/211
f 216/129/211 217/128/212 214/127/209
f 218/131/213 216/129/211 215/133/210
f 215/133/210 219/132/214 218/131/213
f 219/134/214 215/136/210 220/135/215
f 220/135/215 215/139/210 214/138/209
f 214/138/209 221/137/216 220/135/215
f 221/137/216 214/138/209 217/128/212
f 217/128/212 222/140/217 221/137/216
f 222/140/217 217/128/212 216/129/211
f 216/129/211 218/131/213 222/140/217
f 223/141/218 224/144/219 225/143/220
f 225/143/220 226/142/221 223/141/218
f 226/145/221 225/148/220 227/147/222
f 227/147/222 228/146/223 226/145/221
f 228/146/223 227/147/222 229/150/224
f 229/150/224 230/149/225 228/146/223
f 230/149/225 229/150/224 224/144/219
f 224/144/219 223/141/218 230/149/225
f 231/151/87 232/154/87 233/153/88
f 233/153/88 234/152/88 231/151/87
f 234/152/88 233/153/88 235/156/89
f 235/156/89 236/155/89 234/152/88
f 236/157/89 235/160/89 237/159/90
f 237/159/90 238/158/90 236/157/89
f 238/158/90 237/159/90 232/154/87
f 232/154/87 231/151/87 238/158/90
f 188/52/183 183/43/178 182/44/177
f 182/44/177 189/51/184 188/52/183
f 176/32/171 170/22/165 169/161/164
f 169/161/164 177/36/172 176/32/171
f 210/118/205 206/114/201 209/163/204
f 209/163/204 211/162/206 210/118/205
f 239/164/226 240/167/227 241/166/228
f 241/166/228 242/165/229 239/164/226
f 242/168/229 241/166/228 243/170/230
f 243/170/230 244/169/231 242/168/229
f 244/171/231 243/174/230 245/173/232
f 245/173/232 246/172/233 244/171/231
f 246/175/233 245/173/232 240/177/227
f 240/177/227 239/176/226 246/175/233
f 247/178/234 248/181/235 249/180/236
f 249/180/236 250/179/237 247/178/234
f 250/182/237 249/180/236 251/184/238
f 251/184/238 252/183/239 250/182/237
f 252/185/239 251/184/238 253/187/240
f 253/187/240 254/186/241 252/185/239
f 254/188/241 253/187/240 248/181/235
f 248/181/235 247/189/234 254/188/241
f 112/190/107 255/193/242 256/192/243
f 256/192/243 113/191/108 112/190/107
f 257/194/244 258/197/245 256/196/243
f 256/196/243 255/195/242 257/194/244
f 259/198/246 260/201/247 261/200/248
f 261/200/248 262/199/249 259/198/246
f 263/202/250 259/204/246 262/199/249
f 262/199/249 264/203/251 263/202/250
f 264/203/251 262/199/249 261/200/248
f 261/200/248 265/205/252 264/203/251
f 265/205/252 261/200/248 260/207/247
f 260/207/247 266/206/253 265/205/252
f 266/208/253 260/209/247 259/204/246
f 259/204/246 263/202/250 266/208/253
f 243/174/230 241/166/228 240/167/227
f 240/167/227 245/173/232 243/174/230
f 251/184/238 249/180/236 248/181/235
f 248/181/235 253/187/240 251/184/238
f 267/210/254 268/213/255 269/212/256
f 269/212/256 270/211/257 267/210/254
f 271/214/258 272/217/259 273/216/260
f 273/216/260 274/215/261 271/214/258
f 275/218/262 271/220/258 274/215/261
f 274/215/261 276/219/263 275/218/262
f 276/219/263 274/215/261 273/216/260
f 273/216/260 277/221/264 276/219/263
f 277/222/264 273/225/260 272/224/259
f 272/224/259 278/223/265 277/222/264
f 278/223/265 272/226/259 271/220/258
f 271/220/258 275/218/262 278/223/265
f 279/227/266 268/213/255 267/210/254
f 267/210/254 280/228/267 279/227/266
f 280/228/267 267/210/254 270/230/257
f 270/230/257 281/229/268 280/228/267
f 281/229/268 270/230/257 269/232/256
f 269/232/256 282/231/269 281/229/268
f 282/231/269 269/232/256 268/234/255
f 268/234/255 279/233/266 282/231/269
f 283/235/270 145/238/140 144/237/139
f 144/237/139 284/236/271 283/235/270
f 146/239/141 285/241/272 284/236/271
f 284/236/271 144/240/139 146/239/141
f 286/242/273 283/235/270 284/236/271
f 284/236/271 285/241/272 286/242/273
f 149/243/144 7/7/7 160/8/155
f 160/8/155 159/244/154 149/243/144
f 6/6/6 150/246/145 168/245/163
f 168/245/163 163/5/158 6/6/6
f 171/247/166 61/250/61 151/249/146
f 151/249/146 167/248/162 171/247/166
f 167/248/162 151/249/146 149/243/144
f 149/243/144 159/244/154 167/248/162
f 168/251/163 150/253/145 152/252/147
f 152/252/147 161/65/156 168/251/163
f 152/252/147 153/255/148 194/254/189
f 194/254/189 161/65/156 152/252/147
f 194/74/189 153/256/148 47/77/47
f 47/77/47 197/73/192 194/74/189
f 154/257/149 57/258/57 202/94/197
f 202/94/197 201/95/196 154/257/149
f 11/12/11 154/260/149 201/259/196
f 201/259/196 165/11/160 11/12/11
f 203/101/198 176/98/171 175/261/170
f 155/262/150 203/101/198 175/261/170
f 48/263/48 155/262/150 175/261/170
f 155/264/150 18/265/18 173/109/168
f 173/109/168 203/106/198 155/264/150
f 199/86/194 53/90/53 49/80/49
f 49/80/49 198/81/193 199/86/194
f 156/266/151 157/268/152 258/197/245
f 258/197/245 257/267/244 156/266/151
f 258/197/245 157/268/152 113/191/108
f 113/191/108 256/192/243 258/197/245
f 286/242/273 158/270/153 145/269/140
f 145/269/140 283/235/270 286/242/273
